<?xml version="1.0" encoding="UTF-8" standalone="no"?>
<!-- Created with Inkscape (http://www.inkscape.org/) -->
<svg
   xmlns:dc="http://purl.org/dc/elements/1.1/"
   xmlns:cc="http://creativecommons.org/ns#"
   xmlns:rdf="http://www.w3.org/1999/02/22-rdf-syntax-ns#"
   xmlns:svg="http://www.w3.org/2000/svg"
   xmlns="http://www.w3.org/2000/svg"
   xmlns:xlink="http://www.w3.org/1999/xlink"
   xmlns:sodipodi="http://sodipodi.sourceforge.net/DTD/sodipodi-0.dtd"
   xmlns:inkscape="http://www.inkscape.org/namespaces/inkscape"
   width="48"
   height="48"
   id="svg2"
   sodipodi:version="0.32"
   inkscape:version="0.46"
   version="1.0"
   sodipodi:docbase="/home/dobey/Projects/gnome-icon-theme/scalable/apps"
   sodipodi:docname="ctys-multiple-desktops.svg"
   inkscape:output_extension="org.inkscape.output.svg.inkscape">
  <defs
     id="defs4">
    <inkscape:perspective
       sodipodi:type="inkscape:persp3d"
       inkscape:vp_x="0 : 24 : 1"
       inkscape:vp_y="0 : 1000 : 0"
       inkscape:vp_z="48 : 24 : 1"
       inkscape:persp3d-origin="24 : 16 : 1"
       id="perspective96" />
    <linearGradient
       id="linearGradient10997">
      <stop
         style="stop-color:#000000;stop-opacity:1;"
         offset="0"
         id="stop10999" />
      <stop
         style="stop-color:#000000;stop-opacity:0;"
         offset="1"
         id="stop11001" />
    </linearGradient>
    <linearGradient
       id="linearGradient158">
      <stop
         id="stop159"
         offset="0.0000000"
         style="stop-color:#686868;stop-opacity:0.0000000;" />
      <stop
         id="stop162"
         offset="0.23762377"
         style="stop-color:#686868;stop-opacity:1.0000000;" />
      <stop
         id="stop163"
         offset="0.78109992"
         style="stop-color:#686868;stop-opacity:1.0000000;" />
      <stop
         id="stop160"
         offset="1.0000000"
         style="stop-color:#686868;stop-opacity:0.0000000;" />
    </linearGradient>
    <linearGradient
       id="linearGradient272">
      <stop
         id="stop273"
         offset="0.0000000"
         style="stop-color:#474747;stop-opacity:0.0000000;" />
      <stop
         id="stop275"
         offset="0.10000000"
         style="stop-color:#474747;stop-opacity:1.0000000;" />
      <stop
         id="stop276"
         offset="0.89999998"
         style="stop-color:#474747;stop-opacity:1.0000000;" />
      <stop
         id="stop274"
         offset="1.0000000"
         style="stop-color:#474747;stop-opacity:0.0000000;" />
    </linearGradient>
    <linearGradient
       id="linearGradient178">
      <stop
         id="stop179"
         offset="0.0000000"
         style="stop-color:#ffffff;stop-opacity:0.0000000;" />
      <stop
         id="stop180"
         offset="0.10827128"
         style="stop-color:#ffffff;stop-opacity:0.70658684;" />
      <stop
         id="stop181"
         offset="0.92053902"
         style="stop-color:#ffffff;stop-opacity:0.70658684;" />
      <stop
         id="stop182"
         offset="1.0000000"
         style="stop-color:#ffffff;stop-opacity:0.0000000;" />
    </linearGradient>
    <linearGradient
       id="linearGradient204">
      <stop
         id="stop205"
         offset="0.0000000"
         style="stop-color:#7a7a7a;stop-opacity:1.0000000;" />
      <stop
         id="stop207"
         offset="0.19801980"
         style="stop-color:#c5c5c5;stop-opacity:1.0000000;" />
      <stop
         id="stop208"
         offset="0.59900987"
         style="stop-color:#626262;stop-opacity:1.0000000;" />
      <stop
         id="stop206"
         offset="1.0000000"
         style="stop-color:#888888;stop-opacity:1.0000000;" />
    </linearGradient>
    <linearGradient
       id="linearGradient218">
      <stop
         id="stop219"
         offset="0.0000000"
         style="stop-color:#ffffff;stop-opacity:0.44910181;" />
      <stop
         id="stop222"
         offset="1.0000000"
         style="stop-color:#ffffff;stop-opacity:0.0000000;" />
    </linearGradient>
    <linearGradient
       id="linearGradient264">
      <stop
         id="stop265"
         offset="0.0000000"
         style="stop-color:#000000;stop-opacity:0.50299400;" />
      <stop
         id="stop266"
         offset="1.0000000"
         style="stop-color:#000000;stop-opacity:0.0000000;" />
    </linearGradient>
    <linearGradient
       id="linearGradient6240"
       inkscape:collect="always">
      <stop
         id="stop6242"
         offset="0"
         style="stop-color:#ffffff;stop-opacity:1;" />
      <stop
         id="stop6244"
         offset="1"
         style="stop-color:#ffffff;stop-opacity:0;" />
    </linearGradient>
    <linearGradient
       id="linearGradient5137">
      <stop
         id="stop5139"
         offset="0"
         style="stop-color:#eeeeec;stop-opacity:1;" />
      <stop
         id="stop5141"
         offset="1"
         style="stop-color:#e6e6e3;stop-opacity:1;" />
    </linearGradient>
    <linearGradient
       id="linearGradient5233">
      <stop
         id="stop5235"
         offset="0"
         style="stop-color:#729fcf;stop-opacity:1;" />
      <stop
         id="stop5237"
         offset="1"
         style="stop-color:#326194;stop-opacity:1;" />
    </linearGradient>
    <linearGradient
       inkscape:collect="always"
       xlink:href="#linearGradient10997"
       id="linearGradient3451"
       gradientUnits="userSpaceOnUse"
       x1="19.489662"
       y1="6.1438289"
       x2="19.387241"
       y2="8.1000004" />
    <linearGradient
       inkscape:collect="always"
       xlink:href="#linearGradient10997"
       id="linearGradient2515"
       gradientUnits="userSpaceOnUse"
       x1="19.489662"
       y1="6.1438289"
       x2="19.387241"
       y2="8.1000004" />
    <linearGradient
       inkscape:collect="always"
       xlink:href="#linearGradient5137"
       id="linearGradient2517"
       gradientUnits="userSpaceOnUse"
       gradientTransform="translate(91.97061,0.97635)"
       x1="17.247635"
       y1="6.3760414"
       x2="39.904388"
       y2="38.876041" />
    <radialGradient
       inkscape:collect="always"
       xlink:href="#linearGradient5233"
       id="radialGradient2519"
       gradientUnits="userSpaceOnUse"
       gradientTransform="matrix(1.232634,0,0,0.778392,86.38601,3.13073)"
       cx="24.006104"
       cy="32.997028"
       fx="24.006104"
       fy="32.997028"
       r="19.00016" />
    <linearGradient
       inkscape:collect="always"
       xlink:href="#linearGradient6240"
       id="linearGradient2521"
       gradientUnits="userSpaceOnUse"
       gradientTransform="translate(91.97061,0.97635)"
       x1="20.156862"
       y1="5.0996137"
       x2="20.156862"
       y2="26.039215" />
  </defs>
  <sodipodi:namedview
     id="base"
     pagecolor="#ffffff"
     bordercolor="#afafaf"
     borderopacity="1"
     inkscape:pageopacity="0.0"
     inkscape:pageshadow="2"
     inkscape:zoom="5.6568542"
     inkscape:cx="52.732999"
     inkscape:cy="3.7631778"
     inkscape:document-units="px"
     inkscape:current-layer="layer2"
     width="48px"
     height="48px"
     inkscape:showpageshadow="false"
     borderlayer="true"
     inkscape:window-width="1051"
     inkscape:window-height="797"
     inkscape:window-x="1387"
     inkscape:window-y="1092"
     showgrid="true"
     inkscape:grid-bbox="true"
     inkscape:grid-points="true"
     showborder="false"
     showguides="false"
     inkscape:guide-bbox="true"
     inkscape:snap-global="false">
    <inkscape:grid
       id="GridFromPre046Settings"
       type="xygrid"
       originx="0px"
       originy="0px"
       spacingx="0.5px"
       spacingy="0.5px"
       color="#0000ff"
       empcolor="#0000ff"
       opacity="0.2"
       empopacity="0.4"
       empspacing="2" />
  </sodipodi:namedview>
  <metadata
     id="metadata7">
    <rdf:RDF>
      <cc:Work
         rdf:about="">
        <dc:format>image/svg+xml</dc:format>
        <dc:type
           rdf:resource="http://purl.org/dc/dcmitype/StillImage" />
        <dc:creator>
          <cc:Agent>
            <dc:title>Lapo Calamandrei</dc:title>
          </cc:Agent>
        </dc:creator>
        <cc:license
           rdf:resource="http://creativecommons.org/licenses/GPL/2.0/" />
      </cc:Work>
      <cc:License
         rdf:about="http://creativecommons.org/licenses/GPL/2.0/">
        <cc:permits
           rdf:resource="http://web.resource.org/cc/Reproduction" />
        <cc:permits
           rdf:resource="http://web.resource.org/cc/Distribution" />
        <cc:requires
           rdf:resource="http://web.resource.org/cc/Notice" />
        <cc:permits
           rdf:resource="http://web.resource.org/cc/DerivativeWorks" />
        <cc:requires
           rdf:resource="http://web.resource.org/cc/ShareAlike" />
        <cc:requires
           rdf:resource="http://web.resource.org/cc/SourceCode" />
      </cc:License>
    </rdf:RDF>
  </metadata>
  <g
     inkscape:groupmode="layer"
     id="layer2"
     inkscape:label="Desktop"
     style="display:inline">
    <g
       transform="matrix(0.186703,0,0,0.186703,24.27821,58.35791)"
       id="g891" />
    <g
       id="g2299"
       inkscape:label="Shadow"
       transform="translate(-10,13.18088)" />
    <g
       transform="translate(-10,28.24691)"
       inkscape:label="Shadow"
       id="g2301" />
    <g
       transform="translate(-10,28.24691)"
       style="display:inline"
       inkscape:label="Lavoro"
       id="g2303" />
    <g
       transform="translate(38,0.18088)"
       inkscape:label="Shadow"
       id="g3270" />
    <g
       id="g2611"
       inkscape:label="Shadow"
       transform="translate(38,15.24691)" />
    <g
       id="g2613"
       inkscape:label="Lavoro"
       style="display:inline"
       transform="translate(38,15.24691)" />
    <g
       id="g4749"
       transform="matrix(1.0269395,0,0,1.4393629,-94.859386,-5.3401516)">
      <path
         sodipodi:nodetypes="ccccccccc"
         id="rect5040"
         d="M 96.85924,4.454786 L 134.98807,4.454786 C 137.01319,4.454786 138.48905,5.882441 138.48905,8.080927 L 138.5,34.284766 C 138.5,35.976833 137.97165,36.499995 136.46534,36.499995 L 95.50267,36.48106 C 94.3234,36.452267 93.48408,35.986399 93.46824,34.461757 L 93.48342,7.893182 C 93.48342,6.119357 95.02283,4.454786 96.85924,4.454786 z"
         style="fill:url(#linearGradient2517);fill-opacity:1;fill-rule:evenodd;stroke:#888a85;stroke-width:1;stroke-linecap:butt;stroke-linejoin:miter;stroke-miterlimit:4;stroke-opacity:1" />
      <rect
         y="8.4781742"
         x="97.476555"
         height="22.996691"
         width="37.00032"
         id="rect9208"
         style="fill:url(#radialGradient2519);fill-opacity:1;fill-rule:evenodd;stroke:#204a87;stroke-width:1px;stroke-linecap:butt;stroke-linejoin:miter;stroke-opacity:1" />
      <path
         id="path5145"
         d="M 97.01312,5.476351 C 95.71456,5.476351 94.53107,6.760313 94.53107,8.017695 L 94.50004,34.360895 C 94.50626,34.959257 94.63983,35.137782 94.77927,35.259663 C 94.91871,35.381545 95.20583,35.496058 95.67902,35.507599 L 136.32271,35.507599 C 136.9692,35.507599 137.17354,35.407413 137.25348,35.321647 C 137.33342,35.235881 137.47066,34.924256 137.47066,34.174943 L 137.47066,8.203647 C 137.47066,6.411417 136.46712,5.476351 134.8645,5.476351 L 97.01312,5.476351 z"
         style="fill:none;fill-opacity:1;fill-rule:evenodd;stroke:#ffffff;stroke-width:1.00000012;stroke-linecap:butt;stroke-linejoin:miter;stroke-miterlimit:4;stroke-opacity:1" />
      <path
         sodipodi:nodetypes="ccccc"
         id="path4073"
         d="M 97.99414,9.007722 L 97.99414,27.015566 C 114.43858,25.661317 120.59283,16.903147 133.96277,15.988114 L 133.96277,8.97635 L 97.99414,9.007722 z"
         style="opacity:0.75;fill:url(#linearGradient2521);fill-opacity:1;fill-rule:evenodd;stroke:none;stroke-width:1px;stroke-linecap:butt;stroke-linejoin:miter;stroke-opacity:1" />
      <rect
         y="9"
         x="98"
         height="1"
         width="36"
         id="rect4725"
         style="opacity:1;fill:#eeeeec;fill-opacity:1;fill-rule:nonzero;stroke:none;stroke-width:1.5;stroke-linecap:square;stroke-linejoin:round;marker:none;marker-start:none;marker-mid:none;marker-end:none;stroke-miterlimit:4;stroke-dasharray:none;stroke-dashoffset:1.20000057;stroke-opacity:1;visibility:visible;display:inline;overflow:visible" />
      <rect
         ry="0.9375"
         rx="0.9375"
         y="15"
         x="107"
         height="9"
         width="10"
         id="rect4727"
         style="opacity:1;fill:#eeeeec;fill-opacity:1;fill-rule:nonzero;stroke:none;stroke-width:1.5;stroke-linecap:square;stroke-linejoin:round;marker:none;marker-start:none;marker-mid:none;marker-end:none;stroke-miterlimit:4;stroke-dasharray:none;stroke-dashoffset:1.20000057;stroke-opacity:1;visibility:visible;display:inline;overflow:visible" />
      <rect
         ry="0"
         rx="0"
         y="16"
         x="108"
         height="1"
         width="8"
         id="rect4729"
         style="opacity:1;fill:#729fcf;fill-opacity:1;fill-rule:nonzero;stroke:none;stroke-width:1.5;stroke-linecap:square;stroke-linejoin:round;marker:none;marker-start:none;marker-mid:none;marker-end:none;stroke-miterlimit:4;stroke-dasharray:none;stroke-dashoffset:1.20000057;stroke-opacity:1;visibility:visible;display:inline;overflow:visible" />
      <rect
         ry="0.9375"
         rx="0.9375"
         y="17"
         x="119"
         height="12"
         width="13"
         id="rect4731"
         style="opacity:1;fill:#eeeeec;fill-opacity:1;fill-rule:nonzero;stroke:none;stroke-width:1.5;stroke-linecap:square;stroke-linejoin:round;marker:none;marker-start:none;marker-mid:none;marker-end:none;stroke-miterlimit:4;stroke-dasharray:none;stroke-dashoffset:1.20000057;stroke-opacity:1;visibility:visible;display:inline;overflow:visible" />
      <rect
         ry="0"
         rx="0"
         y="18"
         x="120"
         height="1"
         width="11"
         id="rect4733"
         style="opacity:1;fill:#729fcf;fill-opacity:1;fill-rule:nonzero;stroke:none;stroke-width:1.5;stroke-linecap:square;stroke-linejoin:round;marker:none;marker-start:none;marker-mid:none;marker-end:none;stroke-miterlimit:4;stroke-dasharray:none;stroke-dashoffset:1.20000057;stroke-opacity:1;visibility:visible;display:inline;overflow:visible" />
      <rect
         y="10"
         x="99"
         height="10"
         width="5"
         id="rect4735"
         style="opacity:1;fill:#eeeeec;fill-opacity:1;fill-rule:nonzero;stroke:none;stroke-width:1.5;stroke-linecap:square;stroke-linejoin:round;marker:none;marker-start:none;marker-mid:none;marker-end:none;stroke-miterlimit:4;stroke-dasharray:none;stroke-dashoffset:1.20000057;stroke-opacity:1;visibility:visible;display:inline;overflow:visible" />
      <rect
         y="10"
         x="100"
         height="1"
         width="3"
         id="rect4737"
         style="opacity:1;fill:#d3d7cf;fill-opacity:1;fill-rule:nonzero;stroke:none;stroke-width:1.5;stroke-linecap:square;stroke-linejoin:round;marker:none;marker-start:none;marker-mid:none;marker-end:none;stroke-miterlimit:4;stroke-dasharray:none;stroke-dashoffset:1.20000057;stroke-opacity:1;visibility:visible;display:inline;overflow:visible" />
      <rect
         y="12"
         x="100"
         height="1"
         width="3"
         id="rect4739"
         style="opacity:1;fill:#d3d7cf;fill-opacity:1;fill-rule:nonzero;stroke:none;stroke-width:1.5;stroke-linecap:square;stroke-linejoin:round;marker:none;marker-start:none;marker-mid:none;marker-end:none;stroke-miterlimit:4;stroke-dasharray:none;stroke-dashoffset:1.20000057;stroke-opacity:1;visibility:visible;display:inline;overflow:visible" />
      <rect
         y="14"
         x="100"
         height="1"
         width="3"
         id="rect4741"
         style="opacity:1;fill:#d3d7cf;fill-opacity:1;fill-rule:nonzero;stroke:none;stroke-width:1.5;stroke-linecap:square;stroke-linejoin:round;marker:none;marker-start:none;marker-mid:none;marker-end:none;stroke-miterlimit:4;stroke-dasharray:none;stroke-dashoffset:1.20000057;stroke-opacity:1;visibility:visible;display:inline;overflow:visible" />
      <rect
         y="16"
         x="100"
         height="1"
         width="3"
         id="rect4743"
         style="opacity:1;fill:#d3d7cf;fill-opacity:1;fill-rule:nonzero;stroke:none;stroke-width:1.5;stroke-linecap:square;stroke-linejoin:round;marker:none;marker-start:none;marker-mid:none;marker-end:none;stroke-miterlimit:4;stroke-dasharray:none;stroke-dashoffset:1.20000057;stroke-opacity:1;visibility:visible;display:inline;overflow:visible" />
      <rect
         y="18"
         x="100"
         height="1"
         width="3"
         id="rect4745"
         style="opacity:1;fill:#d3d7cf;fill-opacity:1;fill-rule:nonzero;stroke:none;stroke-width:1.5;stroke-linecap:square;stroke-linejoin:round;marker:none;marker-start:none;marker-mid:none;marker-end:none;stroke-miterlimit:4;stroke-dasharray:none;stroke-dashoffset:1.20000057;stroke-opacity:1;visibility:visible;display:inline;overflow:visible" />
    </g>
  </g>
</svg>
