
NAME
====

ctys-vboxutils - VirtualBox utilities

SYNTAX
======

ctys-vboxutils


   [-d <debug-options>]
   [-h]
   [-H <help-options>]
   [-n]
   [-V]
   [-X]
   [
     (
       (FETCH|F) (
           VBOXPATH4ID|P4I
           |VBOXUUID4PATH|UUID
           |VBOXNAME|NAME
           |VBOXCFGFILE|CFGFILE
           |VMSTATE|STATE|VS
           |VMMAC|MAC
           |VMRDP|VR
           |VMRDPLST|VRL
        )
     )
     |
     (
       VMMANAGE (
           GETCFGFILE
        )
     )
     |
     (
       (LIST|L) (
           SERVERS_RAW
           |CLIENTS_RAW
       )
     )
   ]

DESCRIPTION
===========

Refer to documentation or use following option for
extended help:

     ctys -H help

     displays available online help options.

COPYRIGHT
=========

Copyright (C) 2008, 2009, 2010 Ingenieurbuero Arno-Can Uestuensoez

This is software and documentation from BASE package,

- for software see GPL3 for license conditions,
- for documents  see GFDL-1.3 with invariant sections for license conditions.

The whole document - all sections - is/are defined as invariant.

For additional information refer to enclosed Releasenotes and License files.






